[
   {"file" : "Whats_Up.cho",
    "title": "Whats Up",
    "artist": "4 Non Blondes",
     "url": "https://www.youtube.com/watch?v=6NXnxTNIWkc"
  },
  {
    "file" : "Westerland.cho",
    "title": "Westerland",
    "artist": "Die Ärzte",
    "url": "https://www.youtube.com/watch?v=tIFFfP87Ooc"
  },
  {
    "file" : "Wild_Rover.cho",
    "title": "Wild Rover",
    "artist": "The Dubliners",
    "url": "https://www.youtube.com/watch?v=oDgyPD-HCsw"
  },
  {
    "file" : "Whiskey_In_The_Jar.cho",
    "title": "Whiskey In The Jar",
    "artist": "The Dubliners",
    "url": "https://www.youtube.com/watch?v=L__TrWhq4Uk",
    "hasBeatsPerChords": true
  },
  {
    "file" : "Swing_Low_Sweet_Chariot.cho",
    "title": "Swing Low Sweet Chariot",
    "artist": "Traditional",
    "url": ""
  },
  {
    "file" : "Dacing_In_The_Dark.cho",
    "title": "Dancing in the Dark",
    "artist": "Bruce Springsteen",
    "url": "https://www.youtube.com/watch?v=129kuDCQtHs"
  },
  {
    "file" : "Knockin_on_heaves_door.cho",
    "title": "Knockin' on heaven's door",
    "artist": "Bob Dylan",
    "url": "https://www.youtube.com/watch?v=rm9coqlk8fY",
    "hasBeatsPerChords": true
  },
  {
    "file" : "Viva_la_vida.cho",
    "title": "Viva la vida",
    "artist": "Coldplay",
    "url": "https://www.youtube.com/watch?v=dvgZkm1xWPE"
  },
  {
    "file" : "Hey_soul_sister.cho",
    "title": "Hey, Soul Sister",
    "artist": "Train",
    "url": "https://www.youtube.com/watch?v=kVpv8-5XWOI"
  },
  {
    "file" : "Sommer_in_der_Stadt.cho",
    "title": "Sommer in der Stadt",
    "artist": "Spider Murphy Gang",
    "url": "https://www.youtube.com/watch?v=R0GiizOtf1Y"
  }, {
  "file" : "Exs_and_Ohs.cho",
  "title": "Ex's & Oh's",
  "artist": "Elle King",
  "url": "https://www.youtube.com/watch?app=desktop&v=X9OvgrxaPKU"
}, {
  "file" : "Bubbly.cho",
  "title": "Bubbly",
  "artist": "Colbie Caillat",
  "url": "https://www.youtube.com/watch?v=AWGqoCNbsvM"
}, {
  "file" : "This_Land_Is_Your_Land.cho",
  "title": "This Land Is Your Land",
  "artist": "Woody Guthrie",
  "url": "https://www.youtube.com/watch?v=wxiMrvDbq3s"
}, {
  "file" : "Gute_Nacht_Freunde.cho",
  "title": "Gute Nacht Freunde",
  "artist": "Reinhard Mey",
  "url": "https://www.youtube.com/watch?v=6YnQc-AdNCI"
}, {
  "file" : "If_I_Had_a_Hammer.cho",
  "title": "If I Had a Hammer",
  "artist": "Peter, Paul, and Mary",
  "url": "https://www.youtube.com/watch?v=01M_J7c1ft4"
}, {
  "file" : "The_Boxer.cho",
  "title": "The Boxer",
  "artist": "Simon and Garfunkel",
  "url": "https://www.youtube.com/watch?v=l3LFML_pxlY"
}, {
  "file" : "Leaving_On_A_Jet_Plane.cho",
  "title": "Leaving On A Jet Plane",
  "artist": "John Denver",
  "url": "https://www.youtube.com/watch?v=SneCkM0bJq0"
}, {
  "file" : "Lady_In_Black.cho",
  "title": "Lady In Black",
  "artist": "Uriah Heep",
  "url": "https://m.youtube.com/watch?v=bYZ2ftVIr0g&pp=ygUNbGFkeSBpbiBibGFjaw%3D%3D"
}, {
  "file" : "Proud_Mary.cho",
  "title": "Proud Mary",
  "artist": "Creedence Clearwater Revival",
  "url": "https://www.youtube.com/watch?v=5hid10EgMXE"
}, {
  "file" : "Take_Me_Home_Country_Roads.cho",
  "title": "Take Me Home, Country Roads",
  "artist": "John Denver",
  "url": "https://m.youtube.com/watch?v=1vrEljMfXYo"
}, {
  "file" : "Über_den_Wolken.cho",
  "title": "Über den Wolken",
  "artist": "Reinhard Mey",
  "url": "https://m.youtube.com/watch?v=zWwW-gqr2pA&pp=ygUQw5xiZXIgZGVuIHdvbGtlbg%3D%3D"
}, {
  "file" : "Bad_Moon_Rising.cho",
  "title": "Bad Moon Rising",
  "artist": "Creedence Clearwater Revival",
  "url": "https://www.youtube.com/watch?v=5BmEGm-mraE"
}, {
  "file" : "Homeward_Bound.cho",
  "title": "Homeward Bound",
  "artist": "Simon and Garfunkel",
  "url": "https://www.youtube.com/watch?v=JKCVAXhVMkY"
},{
  "file" : "Cotton_Fields.cho",
  "title": "Cotton Fields",
  "artist": "Creedence Clearwater Revival",
  "url": "https://www.youtube.com/watch?v=ibWkp7OFB_A"
},{
  "file" : "Sloop_John_B.cho",
  "title": "Sloop John B",
  "artist": "The Beach Boys",
  "url": "https://www.youtube.com/watch?v=HW5yLvoJMD4"
},{
  "file" : "Heart_of_Gold.cho",
  "title": "Heart of Gold",
  "artist": "Neil Young",
  "url": "https://www.youtube.com/watch?v=c7eB7Wns1-M",
  "hasBeatsPerChords": true
},{
  "file" : "Heute_hier_morgen_dort.cho",
  "title": "Heute hier, morgen dort",
  "artist": "Hannes Wader",
  "url": "https://www.youtube.com/watch?v=2NNgv84dkvk"
},{
  "file" : "Have_you_ever_seen_the_rain.cho",
  "title": "Have You Ever Seen The Rain",
  "artist": "Creedence Clearwater Revival",
  "url": "https://www.youtube.com/watch?v=Gu2pVPWGYMQ"
},{
  "file" : "Dirty_Old_Town.cho",
  "title": "Dirty Old Town",
  "artist": "The Pogues",
  "url": "https://www.youtube.com/watch?v=s11BuatTuXk"
},{
  "file" : "Im_Yours.cho",
  "title": "I'm Yours",
  "artist": "Jason Mraz",
  "url": "https://www.youtube.com/watch?v=EkHTsc9PU2A"
},{
  "file" : "Auf_Uns.cho",
  "title": "Auf uns",
  "artist": "Andreas Bourani",
  "url": "https://www.youtube.com/watch?v=k9EYjn5f_nE"
},{
  "file" : "Burning_Love.cho",
  "title": "Burning Love",
  "artist": "Elvis",
  "url": "https://www.youtube.com/watch?v=zf2VYAtqRe0"
},{
  "file" : "Lets_Twist_Again.cho",
  "title": "Let's Twist Again",
  "artist": "Chubby Checker",
  "url": "https://www.youtube.com/watch?v=E1o3cbLYoIY"
},{
  "file" : "Wagon_Wheel.cho",
  "title": "Wagon Wheel",
  "artist": "Darius Rucker",
  "url": "https://www.youtube.com/watch?v=hvKyBcCDOB4"
},{
  "file" : "The_Lion_Sleeps_Tonight.cho",
  "title": "The Lion Sleeps Tonight",
  "artist": "The Tokens",
  "url": "https://www.youtube.com/watch?v=OQlByoPdG6c"
},{
  "file" : "Stand_by_me.cho",
  "title": "Stand by me",
  "artist": "Ben E. King",
  "url": "https://www.youtube.com/watch?v=hwZNL7QVJjE"
},{
  "file" : "Hey_Jude.cho",
  "title": "Hey Jude",
  "artist": "The Beatles",
  "url": "https://www.youtube.com/watch?v=A_MjCqQoLLA"
},{
  "file" : "All_The_Small_Things.cho",
  "title": "All The Small Things",
  "artist": "Blink-182",
  "url": "https://www.youtube.com/watch?v=9Ht5RZpzPqw"
},{
  "file" : "Molly_Malone.cho",
  "title": "Molly Malone",
  "artist": "The Dubliners",
  "url": "https://www.youtube.com/watch?v=MQcdfxDGCkg"
},{
  "file" : "Let_Her_Go.cho",
  "title": "Let Her Go",
  "artist": "Passenger",
  "url": "https://www.youtube.com/watch?v=RBumgq5yVrA"
},{
  "file" : "Eye_Of_The_Tiger.cho",
  "title": "Eye Of The Tiger",
  "artist": "Survivor",
  "url": "https://www.youtube.com/watch?v=btPJPFnesV4"
},{
  "file" : "Ho_Hey.cho",
  "title": "Ho Hey",
  "artist": "The Lumineers",
  "url": "https://www.youtube.com/watch?v=zvCBSSwgtg4"
},{
  "file" : "Ring_Of_Fire.cho",
  "title": "Ring Of Fire",
  "artist": "Johnny Cash",
  "url": "https://www.youtube.com/watch?v=1WaV2x8GXj0"
},{
  "file" : "Leaving_of_Liverpool.cho",
  "title": "Leaving of Liverpool",
  "artist": "The Pogues",
  "url": "https://www.youtube.com/watch?v=WnTmVirM8sY"
},{
  "file" : "Over_The_Rainbow.cho",
  "title": "Over The Rainbow",
  "artist": "Israel Kamakawiwoʻole",
  "url": "https://www.youtube.com/watch?v=V1bFr2SWP1I"
},{
  "file" : "Save_Tonight.cho",
  "title": "Save Tonight",
  "artist": "Eagle-Eye Cherry",
  "url": "https://conv2.be/watch?v=zHxnm1-gVS4"
},{
  "file" : "Good_Riddance.cho",
  "title": "Good Riddance",
  "artist": "Green Day",
  "url": "https://conv2.be/watch?v=zHxnm1-gVS4"
},{
  "file" : "Brown_Eyed_Girl.cho",
  "title": "Brown Eyed Girl",
  "artist": "Van Morrison",
  "url": "https://www.youtube.com/watch?v=UfmkgQRmmeE"
},{
  "file" : "Free_Fallin.cho",
  "title": "Free Fallin",
  "artist": "Tom Petty",
  "url": "https://www.youtube.com/watch?v=1lWJXDG2i0A",
  "hasBeatsPerChords": true
},{
  "file" : "99_Luftballons.cho",
  "title": "99 Luftballons",
  "artist": "Nena",
  "url": "https://www.youtube.com/watch?v=Fpu5a0Bl8eY"
},{
  "file" : "All_I_Have_To_Do_Is_Dream.cho",
  "title": "All I Have To Do Is Dream",
  "artist": "The Everly Brothers",
  "url": "https://www.youtube.com/watch?v=tbU3zdAgiX8"
},{
  "file" : "See_you_later_Alligator.cho",
  "title": "See you later, Alligator",
  "artist": "Bill Haley and Comets",
  "url": "https://www.youtube.com/watch?v=1Hb66FH9AzI"
},{
  "file" : "Raindrops_Keep_Falling_on_my_Head.cho",
  "title": "Raindrops Keep Falling on my Head",
  "artist": "B. J. Thomas",
  "url": "https://www.youtube.com/watch?v=sySlY1XKlhM"
},{
  "file" : "Galway_Girl.cho",
  "title": "Galway Girl",
  "artist": "Steve Earle",
  "url": "https://www.youtube.com/watch?v=_Lcnvd8BNFE"
},{
  "file" : "Let_it_be.cho",
  "title": "Let it be",
  "artist": "The Beatles",
  "url": "https://www.youtube.com/watch?v=QDYfEBY9NM4"
},{
  "file" : "With_Or_Without_You.cho",
  "title": "With Or Without You",
  "artist": "U2",
  "url": "https://www.youtube.com/watch?v=ujNeHIo7oTE"
},{
  "file" : "Fuerstenfeld.cho",
  "title": "Fürstenfeld",
  "artist": "STS",
  "url": "https://www.youtube.com/watch?v=FpRmP0XUVcA"
},{
  "file" : "Blowin_In_The_Wind.cho",
  "title": "Blowin In The Wind",
  "artist": "Bob Dylan",
  "url": "https://www.youtube.com/watch?v=MMFj8uDubsE"
},{
  "file" : "Que_Sera_Sera.cho",
  "title": "Que Sera Sera",
  "artist": "Doris Day",
  "url": "https://www.youtube.com/watch?v=SdhAfMor9BM"
},{
  "file" : "Fiddlers_Green.cho",
  "title": "Fiddlers Green",
  "artist": "The Dubliners",
  "url": "https://www.youtube.com/watch?v=6bMCrLkCUds"
},{
  "file" : "Sweet_Home_Alabama.cho",
  "title": "Sweet Home Alabama",
  "artist": "Lynyrd Skynyrd",
  "url": "https://www.youtube.com/watch?v=ye5BuYf8q4o",
  "hasBeatsPerChords": true
},{
  "file" : "Dont_Stop_Believin.cho",
  "title": "Dont Stop Believin",
  "artist": "Journey",
  "url": "https://www.youtube.com/watch?v=1k8craCGpgs"
},{
  "file" : "Drunken_Sailor.cho",
  "title": "Drunken Sailor",
  "artist": "The Irish Rovers",
  "url": "https://www.youtube.com/watch?v=qGyPuey-1Jw"
},{
  "file" : "Riptide.cho",
  "title": "Riptide",
  "artist": "Vance Joy",
  "url": "https://www.youtube.com/watch?v=uJ_1HMAGb4k"
},{
  "file" : "Im_A_Believer.cho",
  "title": "Im A Believer",
  "artist": "The Monkees",
  "url": "https://www.youtube.com/watch?v=wB9YIsKIEbA"
},{
  "file" : "Im_Gonna_Be_500_Miles.cho",
  "title": "I'm Gonna Be (500 Miles)",
  "artist": "The Proclaimers",
  "url": "https://www.youtube.com/watch?v=aJ9usrpAPao"
},{
  "file" : "Rose_Tattoo.cho",
  "title": "Rose Tattoo",
  "artist": "Dropkick Murphys",
  "url": "https://www.youtube.com/watch?v=NKDt8Ks-LYw"
},{
  "file" : "Take_It_Easy.cho",
  "title": "Take It Easy",
  "artist": "Eagles",
  "url": "https://www.youtube.com/watch?v=32Oc2d_3yEk"
},{
  "file" : "Schifoan.cho",
  "title": "Schifoan",
  "artist": "Wolfgang Ambros",
  "url": "https://www.youtube.com/watch?v=2yrnAewUAU4"
},{
  "file" : "Wake_me_up.cho",
  "title": "Wake me up",
  "artist": "Avicii",
  "url": "https://www.youtube.com/watch?v=IcrbM1l_BoI"
},{
  "file" : "Wellerman.cho",
  "title": "Wellerman",
  "artist": "Nathan Evans",
  "url": "https://www.youtube.com/watch?v=qP-7GNoDJ5c"
},{
  "file" : "Hamborger_Veermaster.cho",
  "title": "Hamborger Veermaster",
  "artist": "Traditional",
  "url": "https://www.youtube.com/watch?v=juzdNTBRtns"
},{
  "file" : "Angels.cho",
  "title": "Angels",
  "artist": "Robbie Williams",
  "url": "https://www.youtube.com/watch?v=luwAMFcc2f8"
},{
  "file" : "Skandal_im_Sperrbezirk.cho",
  "title": "Skandal im Sperrbezirk",
  "artist": "Spider Murphy Gang",
  "url": "https://www.youtube.com/watch?v=u-AwlK_wBJ8"
},{
  "file" : "Zwickts_Mi.cho",
  "title": "Zwickt's Mi",
  "artist": "Wolfgang Ambros",
  "url": "https://www.youtube.com/watch?v=EVoffqksUhc"
},{
  "file" : "Es_lebe_der_Zentralfriedhof.cho",
  "title": "Es lebe der Zentralfriedhof",
  "artist": "Wolfgang Ambros",
  "url": "https://www.youtube.com/watch?v=nFgj6vJEZrE"
},{
  "file" : "Spuck_Den_Schnuller_Aus.cho",
  "title": "Spuck Den Schnuller Aus",
  "artist": "Ludwig Hirsch",
  "url": "https://www.youtube.com/watch?v=LB_Dj75k_ns"
},{
  "file" : "I_Saved_The_World_Today.cho",
  "title": "I Saved The World Today",
  "artist": "Eurythmics",
  "url": "https://www.youtube.com/watch?v=Zf052uxFF58"
},{
  "file" : "Sweet_Child_O_Mine.cho",
  "title": "Sweet Child O Mine",
  "artist": "Guns N' Roses",
  "url": "https://www.youtube.com/watch?v=1w7OgIMMRc4"
},{
  "file" : "Ayo_Technology.cho",
  "title": "Ayo Technology",
  "artist": "Milow",
  "url": "https://www.youtube.com/watch?v=DE9IchvpOPk"
},{
  "file" : "Drunken_Lullabies.cho",
  "title": "Drunken Lullabies",
  "artist": "Flogging Molly",
  "url": "https://www.youtube.com/watch?v=89NjEeHku8o"
},{
  "file" : "Satisfaction.cho",
  "title": "Satisfaction",
  "artist": "The Rolling Stones",
  "url": "https://www.youtube.com/watch?v=nrIPxlFzDi0"
},{
  "file" : "Ill_Tell_Me_Ma.cho",
  "title": "Ill Tell Me Ma",
  "artist": "Misc Traditional",
  "url": "https://www.youtube.com/watch?v=1clG4QckaqA"
},{
  "file" : "Poison_Heart.cho",
  "title": "Poison Heart",
  "artist": "Ramones",
  "url": "https://www.youtube.com/watch?v=YqPe1p63pnM"
},{
  "file" : "Purple_Rain.cho",
  "title": "Purple Rain",
  "artist": "Prince",
  "url": "https://www.youtube.com/watch?v=S6Y1gohk5-A"
},{
  "file" : "Rare_Old_Mountain_Dew.cho",
  "title": "Rare Old Mountain Dew",
  "artist": "The Dubliners",
  "url": "https://www.youtube.com/watch?v=k0A83RcX1rM"
},{
  "file" : "The_Wanderer.cho",
  "title": "The Wanderer",
  "artist": "Dion ",
  "url": "https://www.youtube.com/watch?v=rXqWCeB8Vto"
},{
  "file" : "Tim_Finnegans_Wake.cho",
  "title": "Tim Finnegan's Wake",
  "artist": "The Clancy Brothers",
  "url": "https://www.youtube.com/watch?v=vnmg3ihDsAc"
},{
  "file" : "Walking_On_Sunshine.cho",
  "title": "Walking On Sunshine",
  "artist": "Katrina and the Waves",
  "url": "https://www.youtube.com/watch?v=iPUmE-tne5U"
},{
  "file" : "Yellow.cho",
  "title": "Yellow",
  "artist": "Coldplay",
  "url": "https://www.youtube.com/watch?v=iPUmE-tne5U"
},{
  "file" : "Creep.cho",
  "title": "Creep",
  "artist": "Radiohead",
  "url": "https://www.youtube.com/watch?v=XFkzRNyygfk"
},{
  "file" : "De_Hamborger_Veermaster.cho",
  "title": "De Hamborger Veermaster",
  "artist": "Traditional",
  "url": "https://www.youtube.com/watch?v=juzdNTBRtns"
},{
  "file" : "Perfect.cho",
  "title": "Perfect",
  "artist": "Ed Sheeran",
  "url": "https://www.youtube.com/watch?v=2Vv-BfVoq4g"
},{
  "file" : "Muss_I_Denn.cho",
  "title": "Muss I Denn",
  "artist": "Vicky Leandros",
  "url": "https://www.youtube.com/watch?v=rExk6xxjvvU"
},{
  "file" : "Speedy_Gonzales.cho",
  "title": "Speedy Gonzales",
  "artist": "Pat Boone",
  "url": "https://www.youtube.com/watch?v=ajEkzwf7WNY"
},{
  "file" : "Teenager_Liebe.cho",
  "title": "Teenager Liebe",
  "artist": "Die Ärzte",
  "url": "https://www.youtube.com/watch?v=O3r3n7OOIag"
},{
  "file" : "The_Great_Song_Of_Indifference.cho",
  "title": "The Great Song Of Indifference",
  "artist": "Bob Geldof",
  "url": "https://www.youtube.com/watch?v=NoweGN8cm5g"
},{
  "file" : "The_Homes_Of_Donegal.cho",
  "title": "The Homes Of Donegal",
  "artist": "Paul Brady",
  "url": "https://www.youtube.com/watch?v=kk8foQOQVk0"
},{
  "file" : "Twist_And_Shout.cho",
  "title": "Twist And Shout",
  "artist": "The Beatles",
  "url": "https://www.youtube.com/watch?v=2RicaUqd9Hg"
},{
  "file" : "Atemlos_durch_die_Nacht.cho",
  "title": "Atemlos durch die Nacht",
  "artist": "Helene Fischer",
  "url": "https://www.youtube.com/watch?v=haECT-SerHk"
},{
  "file" : "Feliz_Navidad.cho",
  "title": "Feliz Navidad",
  "artist": "José Feliciano",
  "url": "https://www.youtube.com/watch?v=N8NcQzMQN_U"
},{
  "file" : "Father_And_Son.cho",
  "title": "Father And Son",
  "artist": "Cat Stevens",
  "url": "https://www.youtube.com/watch?v=P6zaCV4niKk"
},{
  "file" : "Waitin_On_A_Sunny_Day.cho",
  "title": "Waiting On a Sunny Day",
  "artist": "Bruce Springsteen & E Street Band",
  "url": "https://www.youtube.com/watch?v=TiCxqhu9cio"
},{
  "file" : "Marina.cho",
  "title": "Marina",
  "artist": "Rocco Granata",
  "url": "https://www.youtube.com/watch?v=i9-AtHiVHPo"
},{
  "file" : "Se_Bastasse_Una_Canzone.cho",
  "title": "Se Bastasse Una Canzone",
  "artist": "Eros Ramazzotti",
  "url": "https://www.youtube.com/watch?v=C6dpQWnRII0"
},{
  "file" : "Die_Liebe_Ist_Ein_Seltsames_Spiel.cho",
  "title": "Die Liebe Ist Ein Seltsames Spiel",
  "artist": "Connie Francis",
  "url": "https://www.youtube.com/watch?v=V03jn0lhqO8"
},{
  "file" : "Liebeskummer_Lohnt_Sich_Nicht.cho",
  "title": "Liebeskummer Lohnt Sich Nicht",
  "artist": "Siw Malmkvist",
  "url": "https://www.youtube.com/watch?v=mUUJxMiznfc"
},{
  "file" : "Schuld_War_Nur_Der_Bossa_Nova.cho",
  "title": "Schuld War Nur Der Bossa Nova",
  "artist": "Manuela",
  "url": "https://www.youtube.com/watch?v=iLlwYWpOs_o"
},{
  "file" : "Drops_Of_Jupiter.cho",
  "title": "Drops Of Jupiter",
  "artist": "Train",
  "url": "https://www.youtube.com/watch?v=7Xf-Lesrkuc",
  "hasBeatsPerChords": true
},{
  "file" : "The_Joker.cho",
  "title": "The Joker",
  "artist": "Steve Miller Band",
  "url": "https://www.youtube.com/watch?v=dV3AziKTBUo",
  "hasBeatsPerChords": true
}








]